         run       event       nTopo   nIdTracks  nTauTracks       nTaus      nMuons       nElec   nTrueElec   nFakeElec       nPhot   nTruePhot   nFakePhot
      242000     3120001         221           7           1           1           1           0           0           0           0           0           0
      242000     3120002         181           6           0           0           1           0           0           0           0           0           0
      242000     3120003         342          33           2           1           2           0           0           0           4           1           3
      242000     3120004         151          14           4           1           0           0           0           0           0           0           0
      242000     3120005         395          31           5           1           2           1           0           1           2           1           1
